ISO-10303-21;
HEADER;
/* Generated by software containing ST-Developer
 * from STEP Tools, Inc. (www.steptools.com) 
 */

FILE_DESCRIPTION(
/* description */ (''),
/* implementation_level */ '2;1');

FILE_NAME(
/* name */ 
'D:/nuevaTesis2020/DESARROLLO/MATLAB/ModeloNuevo/CAD_models/Breast/cup
Abreast.step',
/* time_stamp */ '2022-02-13T20:32:56-05:00',
/* author */ (''),
/* organization */ (''),
/* preprocessor_version */ 'ST-DEVELOPER v18.1',
/* originating_system */ 'Autodesk Translation Framework v10.13.0.1454',

/* authorisation */ '');

FILE_SCHEMA (('AUTOMOTIVE_DESIGN { 1 0 10303 214 3 1 1 }'));
ENDSEC;

DATA;
#10=MECHANICAL_DESIGN_GEOMETRIC_PRESENTATION_REPRESENTATION('',(#13),#275);
#11=SHAPE_REPRESENTATION_RELATIONSHIP('SRR','None',#282,#12);
#12=ADVANCED_BREP_SHAPE_REPRESENTATION('',(#14),#274);
#13=STYLED_ITEM('',(#291),#14);
#14=MANIFOLD_SOLID_BREP('mamaConico',#116);
#15=FACE_BOUND('',#43,.T.);
#16=CYLINDRICAL_SURFACE('',#142,3.5);
#17=(
BOUNDED_SURFACE()
B_SPLINE_SURFACE(2,2,((#202,#203,#204,#205,#206,#207,#208,#209,#210),(#211,
#212,#213,#214,#215,#216,#217,#218,#219),(#220,#221,#222,#223,#224,#225,
#226,#227,#228)),.UNSPECIFIED.,.F.,.T.,.F.)
B_SPLINE_SURFACE_WITH_KNOTS((3,3),(3,2,2,2,3),(0.,1.5707963267949),(-3.14159265358979,
-1.5707963267949,0.,1.5707963267949,3.14159265358979),.UNSPECIFIED.)
GEOMETRIC_REPRESENTATION_ITEM()
RATIONAL_B_SPLINE_SURFACE(((1.,0.707106781186548,1.,0.707106781186548,1.,
0.707106781186548,1.,0.707106781186548,1.),(0.707106781186554,0.500000000000004,
0.707106781186554,0.500000000000004,0.707106781186554,0.500000000000004,
0.707106781186554,0.500000000000004,0.707106781186554),(1.,0.707106781186548,
1.,0.707106781186548,1.,0.707106781186548,1.,0.707106781186548,1.)))
REPRESENTATION_ITEM('')
SURFACE()
);
#18=(
BOUNDED_SURFACE()
B_SPLINE_SURFACE(2,2,((#241,#242,#243,#244,#245,#246,#247,#248,#249),(#250,
#251,#252,#253,#254,#255,#256,#257,#258),(#259,#260,#261,#262,#263,#264,
#265,#266,#267)),.UNSPECIFIED.,.F.,.T.,.F.)
B_SPLINE_SURFACE_WITH_KNOTS((3,3),(3,2,2,2,3),(-1.5707963267949,-0.540419500270584),
(-3.14159265358979,-1.5707963267949,0.,1.5707963267949,3.14159265358979),
 .UNSPECIFIED.)
GEOMETRIC_REPRESENTATION_ITEM()
RATIONAL_B_SPLINE_SURFACE(((1.,0.707106781186548,1.,0.707106781186548,1.,
0.707106781186548,1.,0.707106781186548,1.),(0.870199906753476,0.615324255053284,
0.870199906753476,0.615324255053284,0.870199906753476,0.615324255053284,
0.870199906753476,0.615324255053284,0.870199906753476),(1.,0.707106781186548,
1.,0.707106781186548,1.,0.707106781186548,1.,0.707106781186548,1.)))
REPRESENTATION_ITEM('')
SURFACE()
);
#19=PLANE('',#137);
#20=PLANE('',#144);
#21=PLANE('',#147);
#22=LINE('',#200,#24);
#23=LINE('',#238,#25);
#24=VECTOR('',#164,56.2);
#25=VECTOR('',#177,3.5);
#26=CONICAL_SURFACE('',#135,56.2,0.540419500270584);
#27=FACE_OUTER_BOUND('',#35,.T.);
#28=FACE_OUTER_BOUND('',#36,.T.);
#29=FACE_OUTER_BOUND('',#37,.T.);
#30=FACE_OUTER_BOUND('',#38,.T.);
#31=FACE_OUTER_BOUND('',#39,.T.);
#32=FACE_OUTER_BOUND('',#40,.T.);
#33=FACE_OUTER_BOUND('',#41,.T.);
#34=FACE_OUTER_BOUND('',#42,.T.);
#35=EDGE_LOOP('',(#79,#80,#81,#82,#83));
#36=EDGE_LOOP('',(#84,#85,#86,#87,#88));
#37=EDGE_LOOP('',(#89));
#38=EDGE_LOOP('',(#90,#91,#92,#93,#94));
#39=EDGE_LOOP('',(#95,#96,#97,#98,#99));
#40=EDGE_LOOP('',(#100));
#41=EDGE_LOOP('',(#101,#102,#103,#104));
#42=EDGE_LOOP('',(#105));
#43=EDGE_LOOP('',(#106));
#44=CIRCLE('',#131,54.382605093487);
#45=CIRCLE('',#132,54.382605093487);
#46=CIRCLE('',#133,2.);
#47=CIRCLE('',#134,52.6676192420619);
#48=CIRCLE('',#136,30.7390764023045);
#49=CIRCLE('',#138,0.5);
#50=CIRCLE('',#139,3.);
#51=CIRCLE('',#140,3.5);
#52=CIRCLE('',#141,3.5);
#53=CIRCLE('',#143,3.5);
#54=CIRCLE('',#145,30.);
#55=CIRCLE('',#146,5.01428863092819);
#56=VERTEX_POINT('',#190);
#57=VERTEX_POINT('',#191);
#58=VERTEX_POINT('',#194);
#59=VERTEX_POINT('',#198);
#60=VERTEX_POINT('',#229);
#61=VERTEX_POINT('',#231);
#62=VERTEX_POINT('',#233);
#63=VERTEX_POINT('',#237);
#64=VERTEX_POINT('',#268);
#65=EDGE_CURVE('',#56,#57,#44,.T.);
#66=EDGE_CURVE('',#57,#56,#45,.T.);
#67=EDGE_CURVE('',#56,#58,#46,.T.);
#68=EDGE_CURVE('',#58,#58,#47,.T.);
#69=EDGE_CURVE('',#59,#59,#48,.T.);
#70=EDGE_CURVE('',#59,#57,#22,.T.);
#71=EDGE_CURVE('',#60,#60,#49,.T.);
#72=EDGE_CURVE('',#60,#61,#50,.T.);
#73=EDGE_CURVE('',#61,#62,#51,.T.);
#74=EDGE_CURVE('',#62,#61,#52,.T.);
#75=EDGE_CURVE('',#62,#63,#23,.T.);
#76=EDGE_CURVE('',#63,#63,#53,.T.);
#77=EDGE_CURVE('',#59,#64,#54,.T.);
#78=EDGE_CURVE('',#64,#64,#55,.T.);
#79=ORIENTED_EDGE('',*,*,#65,.T.);
#80=ORIENTED_EDGE('',*,*,#66,.T.);
#81=ORIENTED_EDGE('',*,*,#67,.T.);
#82=ORIENTED_EDGE('',*,*,#68,.T.);
#83=ORIENTED_EDGE('',*,*,#67,.F.);
#84=ORIENTED_EDGE('',*,*,#69,.F.);
#85=ORIENTED_EDGE('',*,*,#70,.T.);
#86=ORIENTED_EDGE('',*,*,#65,.F.);
#87=ORIENTED_EDGE('',*,*,#66,.F.);
#88=ORIENTED_EDGE('',*,*,#70,.F.);
#89=ORIENTED_EDGE('',*,*,#68,.F.);
#90=ORIENTED_EDGE('',*,*,#71,.T.);
#91=ORIENTED_EDGE('',*,*,#72,.T.);
#92=ORIENTED_EDGE('',*,*,#73,.T.);
#93=ORIENTED_EDGE('',*,*,#74,.T.);
#94=ORIENTED_EDGE('',*,*,#72,.F.);
#95=ORIENTED_EDGE('',*,*,#74,.F.);
#96=ORIENTED_EDGE('',*,*,#75,.T.);
#97=ORIENTED_EDGE('',*,*,#76,.F.);
#98=ORIENTED_EDGE('',*,*,#75,.F.);
#99=ORIENTED_EDGE('',*,*,#73,.F.);
#100=ORIENTED_EDGE('',*,*,#71,.F.);
#101=ORIENTED_EDGE('',*,*,#69,.T.);
#102=ORIENTED_EDGE('',*,*,#77,.T.);
#103=ORIENTED_EDGE('',*,*,#78,.T.);
#104=ORIENTED_EDGE('',*,*,#77,.F.);
#105=ORIENTED_EDGE('',*,*,#78,.F.);
#106=ORIENTED_EDGE('',*,*,#76,.T.);
#107=TOROIDAL_SURFACE('',#130,52.6676192420619,2.);
#108=ADVANCED_FACE('',(#27),#107,.T.);
#109=ADVANCED_FACE('',(#28),#26,.T.);
#110=ADVANCED_FACE('',(#29),#19,.F.);
#111=ADVANCED_FACE('',(#30),#17,.F.);
#112=ADVANCED_FACE('',(#31),#16,.T.);
#113=ADVANCED_FACE('',(#32),#20,.T.);
#114=ADVANCED_FACE('',(#33),#18,.F.);
#115=ADVANCED_FACE('',(#34,#15),#21,.F.);
#116=CLOSED_SHELL('',(#108,#109,#110,#111,#112,#113,#114,#115));
#117=DERIVED_UNIT_ELEMENT(#119,1.);
#118=DERIVED_UNIT_ELEMENT(#277,-3.);
#119=(
MASS_UNIT()
NAMED_UNIT(*)
SI_UNIT(.KILO.,.GRAM.)
);
#120=DERIVED_UNIT((#117,#118));
#121=MEASURE_REPRESENTATION_ITEM('density measure',
POSITIVE_RATIO_MEASURE(1300.),#120);
#122=PROPERTY_DEFINITION_REPRESENTATION(#127,#124);
#123=PROPERTY_DEFINITION_REPRESENTATION(#128,#125);
#124=REPRESENTATION('material name',(#126),#274);
#125=REPRESENTATION('density',(#121),#274);
#126=DESCRIPTIVE_REPRESENTATION_ITEM('PVC, flexible','PVC, flexible');
#127=PROPERTY_DEFINITION('material property','material name',#284);
#128=PROPERTY_DEFINITION('material property','density of part',#284);
#129=AXIS2_PLACEMENT_3D('placement',#188,#148,#149);
#130=AXIS2_PLACEMENT_3D('',#189,#150,#151);
#131=AXIS2_PLACEMENT_3D('',#192,#152,#153);
#132=AXIS2_PLACEMENT_3D('',#193,#154,#155);
#133=AXIS2_PLACEMENT_3D('',#195,#156,#157);
#134=AXIS2_PLACEMENT_3D('',#196,#158,#159);
#135=AXIS2_PLACEMENT_3D('',#197,#160,#161);
#136=AXIS2_PLACEMENT_3D('',#199,#162,#163);
#137=AXIS2_PLACEMENT_3D('',#201,#165,#166);
#138=AXIS2_PLACEMENT_3D('',#230,#167,#168);
#139=AXIS2_PLACEMENT_3D('',#232,#169,#170);
#140=AXIS2_PLACEMENT_3D('',#234,#171,#172);
#141=AXIS2_PLACEMENT_3D('',#235,#173,#174);
#142=AXIS2_PLACEMENT_3D('',#236,#175,#176);
#143=AXIS2_PLACEMENT_3D('',#239,#178,#179);
#144=AXIS2_PLACEMENT_3D('',#240,#180,#181);
#145=AXIS2_PLACEMENT_3D('',#269,#182,#183);
#146=AXIS2_PLACEMENT_3D('',#270,#184,#185);
#147=AXIS2_PLACEMENT_3D('',#271,#186,#187);
#148=DIRECTION('axis',(0.,0.,1.));
#149=DIRECTION('refdir',(1.,0.,0.));
#150=DIRECTION('center_axis',(0.,0.,-1.));
#151=DIRECTION('ref_axis',(-1.,0.,0.));
#152=DIRECTION('center_axis',(0.,0.,1.));
#153=DIRECTION('ref_axis',(-1.,0.,0.));
#154=DIRECTION('center_axis',(0.,0.,1.));
#155=DIRECTION('ref_axis',(-1.,0.,0.));
#156=DIRECTION('center_axis',(-1.22464679914735E-16,-1.,0.));
#157=DIRECTION('ref_axis',(1.,-1.22464679914735E-16,0.));
#158=DIRECTION('center_axis',(0.,0.,-1.));
#159=DIRECTION('ref_axis',(-1.,-1.22464679914735E-16,0.));
#160=DIRECTION('center_axis',(0.,0.,1.));
#161=DIRECTION('ref_axis',(1.,0.,0.));
#162=DIRECTION('center_axis',(0.,0.,-1.));
#163=DIRECTION('ref_axis',(-1.,1.22464679914735E-16,0.));
#164=DIRECTION('',(-0.514495755427527,6.3007558005922E-17,0.857492925712544));
#165=DIRECTION('center_axis',(0.,0.,-1.));
#166=DIRECTION('ref_axis',(-1.,0.,0.));
#167=DIRECTION('center_axis',(0.,0.,1.));
#168=DIRECTION('ref_axis',(1.,0.,0.));
#169=DIRECTION('center_axis',(-1.22464679914735E-16,-1.,0.));
#170=DIRECTION('ref_axis',(1.,-1.22464679914735E-16,0.));
#171=DIRECTION('center_axis',(0.,0.,-1.));
#172=DIRECTION('ref_axis',(1.,0.,0.));
#173=DIRECTION('center_axis',(0.,0.,-1.));
#174=DIRECTION('ref_axis',(1.,0.,0.));
#175=DIRECTION('center_axis',(0.,0.,-1.));
#176=DIRECTION('ref_axis',(1.,0.,0.));
#177=DIRECTION('',(0.,0.,1.));
#178=DIRECTION('center_axis',(0.,0.,1.));
#179=DIRECTION('ref_axis',(1.,0.,0.));
#180=DIRECTION('center_axis',(0.,0.,-1.));
#181=DIRECTION('ref_axis',(1.,0.,0.));
#182=DIRECTION('center_axis',(1.22464679914735E-16,-1.,0.));
#183=DIRECTION('ref_axis',(-1.,-1.22464679914735E-16,0.));
#184=DIRECTION('center_axis',(0.,0.,1.));
#185=DIRECTION('ref_axis',(-1.,1.22464679914735E-16,0.));
#186=DIRECTION('center_axis',(0.,0.,1.));
#187=DIRECTION('ref_axis',(1.,0.,0.));
#188=CARTESIAN_POINT('',(0.,0.,0.));
#189=CARTESIAN_POINT('Origin',(0.,0.,-2.));
#190=CARTESIAN_POINT('',(54.382605093487,1.33198966514067E-14,-3.02899151085505));
#191=CARTESIAN_POINT('',(-54.382605093487,6.65994832570334E-15,-3.02899151085505));
#192=CARTESIAN_POINT('Origin',(0.,6.65994832570334E-15,-3.02899151085505));
#193=CARTESIAN_POINT('Origin',(0.,6.65994832570334E-15,-3.02899151085505));
#194=CARTESIAN_POINT('',(52.6676192420619,0.,0.));
#195=CARTESIAN_POINT('Origin',(52.6676192420619,-6.44992313235026E-15,-2.));
#196=CARTESIAN_POINT('Origin',(0.,0.,0.));
#197=CARTESIAN_POINT('Origin',(0.,0.,0.));
#198=CARTESIAN_POINT('',(-30.7390764023045,3.76445115248282E-15,-42.4348726628258));
#199=CARTESIAN_POINT('Origin',(0.,0.,-42.4348726628258));
#200=CARTESIAN_POINT('',(-56.2,6.88251501120813E-15,0.));
#201=CARTESIAN_POINT('Origin',(0.,0.,0.));
#202=CARTESIAN_POINT('Ctrl Pts',(3.5,0.,-59.));
#203=CARTESIAN_POINT('Ctrl Pts',(3.5,-3.5,-59.));
#204=CARTESIAN_POINT('Ctrl Pts',(0.,-3.5,-59.));
#205=CARTESIAN_POINT('Ctrl Pts',(-3.5,-3.5,-59.));
#206=CARTESIAN_POINT('Ctrl Pts',(-3.5,0.,-59.));
#207=CARTESIAN_POINT('Ctrl Pts',(-3.5,3.5,-59.));
#208=CARTESIAN_POINT('Ctrl Pts',(0.,3.5,-59.));
#209=CARTESIAN_POINT('Ctrl Pts',(3.5,3.5,-59.));
#210=CARTESIAN_POINT('Ctrl Pts',(3.5,0.,-59.));
#211=CARTESIAN_POINT('Ctrl Pts',(3.5,0.,-62.));
#212=CARTESIAN_POINT('Ctrl Pts',(3.5,-3.5,-62.));
#213=CARTESIAN_POINT('Ctrl Pts',(0.,-3.5,-62.));
#214=CARTESIAN_POINT('Ctrl Pts',(-3.5,-3.5,-62.));
#215=CARTESIAN_POINT('Ctrl Pts',(-3.5,0.,-62.));
#216=CARTESIAN_POINT('Ctrl Pts',(-3.5,3.5,-62.));
#217=CARTESIAN_POINT('Ctrl Pts',(0.,3.5,-62.));
#218=CARTESIAN_POINT('Ctrl Pts',(3.5,3.5,-62.));
#219=CARTESIAN_POINT('Ctrl Pts',(3.5,0.,-62.));
#220=CARTESIAN_POINT('Ctrl Pts',(0.5,0.,-62.));
#221=CARTESIAN_POINT('Ctrl Pts',(0.5,-0.5,-62.));
#222=CARTESIAN_POINT('Ctrl Pts',(0.,-0.5,-62.));
#223=CARTESIAN_POINT('Ctrl Pts',(-0.5,-0.5,-62.));
#224=CARTESIAN_POINT('Ctrl Pts',(-0.5,0.,-62.));
#225=CARTESIAN_POINT('Ctrl Pts',(-0.5,0.5,-62.));
#226=CARTESIAN_POINT('Ctrl Pts',(0.,0.5,-62.));
#227=CARTESIAN_POINT('Ctrl Pts',(0.5,0.5,-62.));
#228=CARTESIAN_POINT('Ctrl Pts',(0.5,0.,-62.));
#229=CARTESIAN_POINT('',(0.5,-6.12323399573676E-17,-62.));
#230=CARTESIAN_POINT('Origin',(0.,0.,-62.));
#231=CARTESIAN_POINT('',(3.5,-4.28626379701574E-16,-59.));
#232=CARTESIAN_POINT('Origin',(0.5,-6.12323399573676E-17,-59.));
#233=CARTESIAN_POINT('',(-3.5,4.28626379701574E-16,-59.));
#234=CARTESIAN_POINT('Origin',(0.,0.,-59.));
#235=CARTESIAN_POINT('Origin',(0.,0.,-59.));
#236=CARTESIAN_POINT('Origin',(0.,0.,-57.));
#237=CARTESIAN_POINT('',(-3.5,4.28626379701574E-16,-57.));
#238=CARTESIAN_POINT('',(-3.5,4.28626379701574E-16,-57.));
#239=CARTESIAN_POINT('Origin',(0.,0.,-57.));
#240=CARTESIAN_POINT('Origin',(0.,0.,-62.));
#241=CARTESIAN_POINT('Ctrl Pts',(-5.01428863092819,0.,-57.));
#242=CARTESIAN_POINT('Ctrl Pts',(-5.01428863092819,-5.01428863092819,-57.));
#243=CARTESIAN_POINT('Ctrl Pts',(0.,-5.01428863092819,-57.));
#244=CARTESIAN_POINT('Ctrl Pts',(5.01428863092819,-5.01428863092819,-57.));
#245=CARTESIAN_POINT('Ctrl Pts',(5.01428863092819,0.,-57.));
#246=CARTESIAN_POINT('Ctrl Pts',(5.01428863092819,5.01428863092819,-57.));
#247=CARTESIAN_POINT('Ctrl Pts',(0.,5.01428863092819,-57.));
#248=CARTESIAN_POINT('Ctrl Pts',(-5.01428863092819,5.01428863092819,-57.));
#249=CARTESIAN_POINT('Ctrl Pts',(-5.01428863092819,0.,-57.));
#250=CARTESIAN_POINT('Ctrl Pts',(-22.,0.,-57.));
#251=CARTESIAN_POINT('Ctrl Pts',(-22.,-22.,-57.));
#252=CARTESIAN_POINT('Ctrl Pts',(0.,-22.,-57.));
#253=CARTESIAN_POINT('Ctrl Pts',(22.,-22.,-57.));
#254=CARTESIAN_POINT('Ctrl Pts',(22.,0.,-57.));
#255=CARTESIAN_POINT('Ctrl Pts',(22.,22.,-57.));
#256=CARTESIAN_POINT('Ctrl Pts',(0.,22.,-57.));
#257=CARTESIAN_POINT('Ctrl Pts',(-22.,22.,-57.));
#258=CARTESIAN_POINT('Ctrl Pts',(-22.,0.,-57.));
#259=CARTESIAN_POINT('Ctrl Pts',(-30.7390764023045,0.,-42.4348726628258));
#260=CARTESIAN_POINT('Ctrl Pts',(-30.7390764023045,-30.7390764023045,-42.4348726628258));
#261=CARTESIAN_POINT('Ctrl Pts',(0.,-30.7390764023045,-42.4348726628258));
#262=CARTESIAN_POINT('Ctrl Pts',(30.7390764023045,-30.7390764023045,-42.4348726628258));
#263=CARTESIAN_POINT('Ctrl Pts',(30.7390764023045,0.,-42.4348726628258));
#264=CARTESIAN_POINT('Ctrl Pts',(30.7390764023045,30.7390764023045,-42.4348726628258));
#265=CARTESIAN_POINT('Ctrl Pts',(0.,30.7390764023045,-42.4348726628258));
#266=CARTESIAN_POINT('Ctrl Pts',(-30.7390764023045,30.7390764023045,-42.4348726628258));
#267=CARTESIAN_POINT('Ctrl Pts',(-30.7390764023045,0.,-42.4348726628258));
#268=CARTESIAN_POINT('',(-5.01428863092819,-6.14073252186717E-16,-57.));
#269=CARTESIAN_POINT('Origin',(-5.01428863092819,-6.14073252186717E-16,
-27.));
#270=CARTESIAN_POINT('Origin',(0.,0.,-57.));
#271=CARTESIAN_POINT('Origin',(0.,0.,-57.));
#272=UNCERTAINTY_MEASURE_WITH_UNIT(LENGTH_MEASURE(0.01),#276,
'DISTANCE_ACCURACY_VALUE',
'Maximum model space distance between geometric entities at asserted c
onnectivities');
#273=UNCERTAINTY_MEASURE_WITH_UNIT(LENGTH_MEASURE(0.01),#276,
'DISTANCE_ACCURACY_VALUE',
'Maximum model space distance between geometric entities at asserted c
onnectivities');
#274=(
GEOMETRIC_REPRESENTATION_CONTEXT(3)
GLOBAL_UNCERTAINTY_ASSIGNED_CONTEXT((#272))
GLOBAL_UNIT_ASSIGNED_CONTEXT((#276,#278,#279))
REPRESENTATION_CONTEXT('','3D')
);
#275=(
GEOMETRIC_REPRESENTATION_CONTEXT(3)
GLOBAL_UNCERTAINTY_ASSIGNED_CONTEXT((#273))
GLOBAL_UNIT_ASSIGNED_CONTEXT((#276,#278,#279))
REPRESENTATION_CONTEXT('','3D')
);
#276=(
LENGTH_UNIT()
NAMED_UNIT(*)
SI_UNIT(.MILLI.,.METRE.)
);
#277=(
LENGTH_UNIT()
NAMED_UNIT(*)
SI_UNIT($,.METRE.)
);
#278=(
NAMED_UNIT(*)
PLANE_ANGLE_UNIT()
SI_UNIT($,.RADIAN.)
);
#279=(
NAMED_UNIT(*)
SI_UNIT($,.STERADIAN.)
SOLID_ANGLE_UNIT()
);
#280=SHAPE_DEFINITION_REPRESENTATION(#281,#282);
#281=PRODUCT_DEFINITION_SHAPE('',$,#284);
#282=SHAPE_REPRESENTATION('',(#129),#274);
#283=PRODUCT_DEFINITION_CONTEXT('part definition',#288,'design');
#284=PRODUCT_DEFINITION('cupAbreast','cupAbreast v5',#285,#283);
#285=PRODUCT_DEFINITION_FORMATION('',$,#290);
#286=PRODUCT_RELATED_PRODUCT_CATEGORY('cupAbreast v5','cupAbreast v5',(#290));
#287=APPLICATION_PROTOCOL_DEFINITION('international standard',
'automotive_design',2009,#288);
#288=APPLICATION_CONTEXT(
'Core Data for Automotive Mechanical Design Process');
#289=PRODUCT_CONTEXT('part definition',#288,'mechanical');
#290=PRODUCT('cupAbreast','cupAbreast v5',$,(#289));
#291=PRESENTATION_STYLE_ASSIGNMENT((#292));
#292=SURFACE_STYLE_USAGE(.BOTH.,#293);
#293=SURFACE_SIDE_STYLE('',(#294));
#294=SURFACE_STYLE_FILL_AREA(#295);
#295=FILL_AREA_STYLE('Pl\X\E1stico - Mate (gris)',(#296));
#296=FILL_AREA_STYLE_COLOUR('Pl\X\E1stico - Mate (gris)',#297);
#297=COLOUR_RGB('Pl\X\E1stico - Mate (gris)',0.701960784313725,0.701960784313725,
0.701960784313725);
ENDSEC;
END-ISO-10303-21;
